<svg xmlns="http://www.w3.org/2000/svg" width="25" height="25" viewBox="0 0 25 25">
    <path fill="#8B33FF" fill-rule="evenodd" d="M12.5 0C5.607 0 0 5.607 0 12.5S5.607 25 12.5 25 25 19.393 25 12.5 19.393 0 12.5 0zm5.469 13.542h-4.427v4.427c0 .575-.467 1.041-1.042 1.041s-1.042-.466-1.042-1.041v-4.427H7.031c-.575 0-1.041-.467-1.041-1.042s.466-1.042 1.041-1.042h4.427V7.031c0-.575.467-1.041 1.042-1.041s1.042.466 1.042 1.041v4.427h4.427c.575 0 1.041.467 1.041 1.042s-.466 1.042-1.041 1.042z"/>
</svg>
