<svg xmlns="http://www.w3.org/2000/svg" xmlns:xlink="http://www.w3.org/1999/xlink" width="16" height="16" viewBox="0 0 16 16">
    <defs>
        <path id="k8t7bvqska" d="M8.675.27c1.005 0 2.087.923 2.087 2.95 0 .692-.118 1.272-.258 1.713h2.484c1.66 0 3.012 1.352 3.012 3.013 0 .04-.155 3.176-.762 4.454l.055.008c-.236 1.44-1.543 2.525-3.043 2.525h-.95c-2.66 0-4.453-.522-5.524-.99-.315.59-.937.99-1.651.99h-1.25c-1.034 0-1.875-.84-1.875-1.875v-6.25c0-1.033.841-1.875 1.875-1.875h1.25c.417 0 .803.137 1.115.369.653-.447 1.935-1.472 1.935-2.656 0-.771 0-2.375 1.5-2.375zm-4.55 5.913h-1.25c-.345 0-.625.28-.625.625v6.25c0 .345.28.625.625.625h1.25c.345 0 .625-.28.625-.625v-6.25c0-.345-.28-.625-.625-.625zm4.55-4.662c-.118.016-.25.194-.25 1.125 0 1.749-1.573 3.071-2.488 3.692.042.15.063.307.063.47v5.86c.814.397 2.528 1.015 5.3 1.015h.95c.879 0 1.672-.648 1.807-1.476l.013-.057c.075-.365.664-3.87.68-4.215 0-.96-.791-1.752-1.762-1.752H9.55c-.231 0-.443-.127-.551-.33-.109-.205-.097-.452.032-.643.002-.004.481-.757.481-1.99 0-1.247-.5-1.7-.837-1.7z"/>
    </defs>
    <g fill="none" fill-rule="evenodd">
        <mask id="jbj9o9w5ub" fill="#fff">
            <use xlink:href="#k8t7bvqska"/>
        </mask>
        <use fill="#24AF1E" fill-rule="nonzero" xlink:href="#k8t7bvqska"/>
        <path fill="#93969D" d="M0 0H16V16H0z" mask="url(#jbj9o9w5ub)"/>
    </g>
</svg>
