<svg xmlns="http://www.w3.org/2000/svg" width="16" height="16" viewBox="0 0 16 16">
    <g fill="#F36">
        <path d="M4.125 14.933h-1.25c-1.034 0-1.875-.84-1.875-1.875v-6.25c0-1.033.841-1.875 1.875-1.875h1.25C5.159 4.933 6 5.775 6 6.808v6.25c0 1.034-.841 1.875-1.875 1.875zm-1.25-8.75c-.345 0-.625.28-.625.625v6.25c0 .345.28.625.625.625h1.25c.345 0 .625-.28.625-.625v-6.25c0-.345-.28-.625-.625-.625h-1.25z" transform="matrix(1 0 0 -1 0 16)"/>
        <path d="M12.25 14.933h-.95c-3.376 0-5.356-.842-6.235-1.345-.3-.17-.404-.552-.233-.852.17-.301.552-.405.853-.233.621.355 2.413 1.18 5.615 1.18h.95c.879 0 1.672-.648 1.807-1.476l.013-.057c.075-.365.664-3.87.68-4.215 0-.96-.791-1.752-1.762-1.752H9.55c-.231 0-.443-.127-.551-.33-.109-.205-.097-.452.032-.643.002-.004.481-.757.481-1.99 0-1.247-.5-1.7-.837-1.7-.118.017-.25.195-.25 1.126 0 1.936-1.928 3.35-2.756 3.867-.294.184-.679.093-.861-.198-.183-.293-.094-.68.198-.862.509-.317 2.169-1.46 2.169-2.807 0-.771 0-2.375 1.5-2.375 1.005 0 2.087.922 2.087 2.95 0 .691-.118 1.271-.258 1.712h2.484c1.66 0 3.012 1.352 3.012 3.013 0 .04-.155 3.176-.762 4.454l.055.008c-.236 1.44-1.543 2.525-3.043 2.525z" transform="matrix(1 0 0 -1 0 16)"/>
    </g>
</svg>
