<svg xmlns="http://www.w3.org/2000/svg" width="32" height="32" viewBox="0 0 32 32">
    <g fill="none" fill-rule="evenodd">
        <g>
            <g>
                <g>
                    <path fill="#8B33FF" d="M10 0h12c5.523 0 10 4.477 10 10v20c0 1.105-.895 2-2 2H10C4.477 32 0 27.523 0 22V10C0 4.477 4.477 0 10 0z" transform="translate(-143.000000, -19.000000) translate(0.000000, 5.000000) translate(143.000000, 14.000000)"/>
                    <g stroke="#FFF" stroke-width="1.5">
                        <path d="M9.6 0c5.302 0 9.6 4.298 9.6 9.6v7.19h0s0 0 0 0c0 1.331-1.079 2.41-2.41 2.41H9.6C4.298 19.2 0 14.902 0 9.6S4.298 0 9.6 0z" transform="translate(-143.000000, -19.000000) translate(0.000000, 5.000000) translate(143.000000, 14.000000) translate(6.400000, 6.400000)"/>
                        <path stroke-linecap="round" d="M6 12c1.09 1.333 2.474 2 4.153 2 1.68 0 3.095-.667 4.247-2" transform="translate(-143.000000, -19.000000) translate(0.000000, 5.000000) translate(143.000000, 14.000000) translate(6.400000, 6.400000)"/>
                    </g>
                </g>
            </g>
        </g>
    </g>
</svg>
